{
  "tracks": {
    "href": "https://api.spotify.com/v1/search?query=Stay+Flo&type=track&offset=0&limit=5",
    "items": [
      {
        "album": {
          "album_type": "album",
          "artists": [
            {
              "external_urls": {
                "spotify": "https://open.spotify.com/artist/2auiVi8sUZo17dLy1HwrTU"
              },
              "href": "https://api.spotify.com/v1/artists/2auiVi8sUZo17dLy1HwrTU",
              "id": "2auiVi8sUZo17dLy1HwrTU",
              "name": "Solange",
              "type": "artist",
              "uri": "spotify:artist:2auiVi8sUZo17dLy1HwrTU"
            }
          ],
          "available_markets": [
            "AD",
            "AE",
            "AR",
            "AT",
            "AU",
            "BE",
            "BG",
            "BH",
            "BO",
            "BR",
            "CA",
            "CH",
            "CL",
            "CO",
            "CR",
            "CY",
            "CZ",
            "DE",
            "DK",
            "DO",
            "DZ",
            "EC",
            "EE",
            "EG",
            "ES",
            "FI",
            "FR",
            "GB",
            "GR",
            "GT",
            "HK",
            "HN",
            "HU",
            "ID",
            "IE",
            "IL",
            "IN",
            "IS",
            "IT",
            "JO",
            "JP",
            "KW",
            "LB",
            "LI",
            "LT",
            "LU",
            "LV",
            "MA",
            "MC",
            "MT",
            "MX",
            "MY",
            "NI",
            "NL",
            "NO",
            "NZ",
            "OM",
            "PA",
            "PE",
            "PH",
            "PL",
            "PS",
            "PT",
            "PY",
            "QA",
            "RO",
            "SA",
            "SE",
            "SG",
            "SK",
            "SV",
            "TH",
            "TN",
            "TR",
            "TW",
            "US",
            "UY",
            "VN",
            "ZA"
          ],
          "external_urls": {
            "spotify": "https://open.spotify.com/album/4WF4HvVT7VjGnVjxjoCR6w"
          },
          "href": "https://api.spotify.com/v1/albums/4WF4HvVT7VjGnVjxjoCR6w",
          "id": "4WF4HvVT7VjGnVjxjoCR6w",
          "images": [
            {
              "height": 640,
              "url": "https://i.scdn.co/image/95f7ac0a93a9414ab440512bd8bdec5aa490d673",
              "width": 640
            },
            {
              "height": 300,
              "url": "https://i.scdn.co/image/7916e9ac549aa892d6742a6c440fb53c78126f31",
              "width": 300
            },
            {
              "height": 64,
              "url": "https://i.scdn.co/image/4c0fca04aed8583b2e3a87da524a1c7b8b202b27",
              "width": 64
            }
          ],
          "name": "When I Get Home",
          "release_date": "2019-03-01",
          "release_date_precision": "day",
          "total_tracks": 19,
          "type": "album",
          "uri": "spotify:album:4WF4HvVT7VjGnVjxjoCR6w"
        },
        "artists": [
          {
            "external_urls": {
              "spotify": "https://open.spotify.com/artist/2auiVi8sUZo17dLy1HwrTU"
            },
            "href": "https://api.spotify.com/v1/artists/2auiVi8sUZo17dLy1HwrTU",
            "id": "2auiVi8sUZo17dLy1HwrTU",
            "name": "Solange",
            "type": "artist",
            "uri": "spotify:artist:2auiVi8sUZo17dLy1HwrTU"
          }
        ],
        "available_markets": [
          "AD",
          "AE",
          "AR",
          "AT",
          "AU",
          "BE",
          "BG",
          "BH",
          "BO",
          "BR",
          "CA",
          "CH",
          "CL",
          "CO",
          "CR",
          "CY",
          "CZ",
          "DE",
          "DK",
          "DO",
          "DZ",
          "EC",
          "EE",
          "EG",
          "ES",
          "FI",
          "FR",
          "GB",
          "GR",
          "GT",
          "HK",
          "HN",
          "HU",
          "ID",
          "IE",
          "IL",
          "IN",
          "IS",
          "IT",
          "JO",
          "JP",
          "KW",
          "LB",
          "LI",
          "LT",
          "LU",
          "LV",
          "MA",
          "MC",
          "MT",
          "MX",
          "MY",
          "NI",
          "NL",
          "NO",
          "NZ",
          "OM",
          "PA",
          "PE",
          "PH",
          "PL",
          "PS",
          "PT",
          "PY",
          "QA",
          "RO",
          "SA",
          "SE",
          "SG",
          "SK",
          "SV",
          "TH",
          "TN",
          "TR",
          "TW",
          "US",
          "UY",
          "VN",
          "ZA"
        ],
        "disc_number": 1,
        "duration_ms": 175706,
        "explicit": true,
        "external_ids": {
          "isrc": "USSM11901224"
        },
        "external_urls": {
          "spotify": "https://open.spotify.com/track/6GCIYIWUBSLontW6divqsw"
        },
        "href": "https://api.spotify.com/v1/tracks/6GCIYIWUBSLontW6divqsw",
        "id": "6GCIYIWUBSLontW6divqsw",
        "is_local": false,
        "name": "Stay Flo",
        "popularity": 70,
        "preview_url": "https://p.scdn.co/mp3-preview/4a16371bce8ccab4da2bc15982b9835e0eb2a64d?cid=87734dfae0b7432488270b2fc1ff2e30",
        "track_number": 6,
        "type": "track",
        "uri": "spotify:track:6GCIYIWUBSLontW6divqsw"
      },
      {
        "album": {
          "album_type": "single",
          "artists": [
            {
              "external_urls": {
                "spotify": "https://open.spotify.com/artist/0jnsk9HBra6NMjO2oANoPY"
              },
              "href": "https://api.spotify.com/v1/artists/0jnsk9HBra6NMjO2oANoPY",
              "id": "0jnsk9HBra6NMjO2oANoPY",
              "name": "Flo Rida",
              "type": "artist",
              "uri": "spotify:artist:0jnsk9HBra6NMjO2oANoPY"
            }
          ],
          "available_markets": [
            "AD",
            "AE",
            "AR",
            "AT",
            "AU",
            "BE",
            "BG",
            "BH",
            "BO",
            "BR",
            "CA",
            "CH",
            "CL",
            "CO",
            "CR",
            "CY",
            "CZ",
            "DE",
            "DK",
            "DO",
            "DZ",
            "EC",
            "EE",
            "EG",
            "ES",
            "FI",
            "FR",
            "GR",
            "GT",
            "HN",
            "HU",
            "IL",
            "IS",
            "IT",
            "JO",
            "JP",
            "KW",
            "LB",
            "LT",
            "LU",
            "LV",
            "MA",
            "MC",
            "MT",
            "MX",
            "NI",
            "NL",
            "NO",
            "NZ",
            "OM",
            "PA",
            "PE",
            "PL",
            "PT",
            "PY",
            "QA",
            "RO",
            "SA",
            "SE",
            "SK",
            "SV",
            "TN",
            "TR",
            "US",
            "UY",
            "ZA"
          ],
          "external_urls": {
            "spotify": "https://open.spotify.com/album/7jMD1nIwIuawGyiOyRrIp8"
          },
          "href": "https://api.spotify.com/v1/albums/7jMD1nIwIuawGyiOyRrIp8",
          "id": "7jMD1nIwIuawGyiOyRrIp8",
          "images": [
            {
              "height": 640,
              "url": "https://i.scdn.co/image/9ad4c19da45fb58798a474fda6369122e5522ea3",
              "width": 640
            },
            {
              "height": 300,
              "url": "https://i.scdn.co/image/0c8bd2dadd34294655917cb634d59129921d8635",
              "width": 300
            },
            {
              "height": 64,
              "url": "https://i.scdn.co/image/8bab76a8264e83e377d15572ea001de4371266ec",
              "width": 64
            }
          ],
          "name": "Club Can't Handle Me",
          "release_date": "2010-06-28",
          "release_date_precision": "day",
          "total_tracks": 2,
          "type": "album",
          "uri": "spotify:album:7jMD1nIwIuawGyiOyRrIp8"
        },
        "artists": [
          {
            "external_urls": {
              "spotify": "https://open.spotify.com/artist/0jnsk9HBra6NMjO2oANoPY"
            },
            "href": "https://api.spotify.com/v1/artists/0jnsk9HBra6NMjO2oANoPY",
            "id": "0jnsk9HBra6NMjO2oANoPY",
            "name": "Flo Rida",
            "type": "artist",
            "uri": "spotify:artist:0jnsk9HBra6NMjO2oANoPY"
          }
        ],
        "available_markets": [
          "AD",
          "AE",
          "AR",
          "AT",
          "AU",
          "BE",
          "BG",
          "BH",
          "BO",
          "BR",
          "CA",
          "CH",
          "CL",
          "CO",
          "CR",
          "CY",
          "CZ",
          "DE",
          "DK",
          "DO",
          "DZ",
          "EC",
          "EE",
          "EG",
          "ES",
          "FI",
          "FR",
          "GR",
          "GT",
          "HN",
          "HU",
          "IL",
          "IS",
          "IT",
          "JO",
          "JP",
          "KW",
          "LB",
          "LT",
          "LU",
          "LV",
          "MA",
          "MC",
          "MT",
          "MX",
          "NI",
          "NL",
          "NO",
          "NZ",
          "OM",
          "PA",
          "PE",
          "PL",
          "PT",
          "PY",
          "QA",
          "RO",
          "SA",
          "SE",
          "SK",
          "SV",
          "TN",
          "TR",
          "US",
          "UY",
          "ZA"
        ],
        "disc_number": 1,
        "duration_ms": 185970,
        "explicit": false,
        "external_ids": {
          "isrc": "USAT21001235"
        },
        "external_urls": {
          "spotify": "https://open.spotify.com/track/6jB5qWNwnR5sUMrko9byyy"
        },
        "href": "https://api.spotify.com/v1/tracks/6jB5qWNwnR5sUMrko9byyy",
        "id": "6jB5qWNwnR5sUMrko9byyy",
        "is_local": false,
        "name": "Fresh I Stay - Single Version",
        "popularity": 25,
        "preview_url": "https://p.scdn.co/mp3-preview/b3461a08c08ae508480a05b34584c8bb2c919894?cid=87734dfae0b7432488270b2fc1ff2e30",
        "track_number": 2,
        "type": "track",
        "uri": "spotify:track:6jB5qWNwnR5sUMrko9byyy"
      },
      {
        "album": {
          "album_type": "single",
          "artists": [
            {
              "external_urls": {
                "spotify": "https://open.spotify.com/artist/5KKvcbrAgisuY3xDtioMbu"
              },
              "href": "https://api.spotify.com/v1/artists/5KKvcbrAgisuY3xDtioMbu",
              "id": "5KKvcbrAgisuY3xDtioMbu",
              "name": "MoonLander",
              "type": "artist",
              "uri": "spotify:artist:5KKvcbrAgisuY3xDtioMbu"
            }
          ],
          "available_markets": [
            "AD",
            "AE",
            "AR",
            "AT",
            "AU",
            "BE",
            "BG",
            "BH",
            "BO",
            "BR",
            "CA",
            "CH",
            "CL",
            "CO",
            "CR",
            "CY",
            "CZ",
            "DE",
            "DK",
            "DO",
            "DZ",
            "EC",
            "EE",
            "EG",
            "ES",
            "FI",
            "FR",
            "GB",
            "GR",
            "GT",
            "HK",
            "HN",
            "HU",
            "ID",
            "IE",
            "IL",
            "IN",
            "IS",
            "IT",
            "JO",
            "JP",
            "KW",
            "LB",
            "LI",
            "LT",
            "LU",
            "LV",
            "MA",
            "MC",
            "MT",
            "MX",
            "MY",
            "NI",
            "NL",
            "NO",
            "NZ",
            "OM",
            "PA",
            "PE",
            "PH",
            "PL",
            "PS",
            "PT",
            "PY",
            "QA",
            "RO",
            "SA",
            "SE",
            "SG",
            "SK",
            "SV",
            "TH",
            "TN",
            "TR",
            "TW",
            "US",
            "UY",
            "VN",
            "ZA"
          ],
          "external_urls": {
            "spotify": "https://open.spotify.com/album/3Fu24SV10reGItYkG92uNE"
          },
          "href": "https://api.spotify.com/v1/albums/3Fu24SV10reGItYkG92uNE",
          "id": "3Fu24SV10reGItYkG92uNE",
          "images": [
            {
              "height": 640,
              "url": "https://i.scdn.co/image/0aec0dcaed6b0f0743f08a082a42a76c2df295ce",
              "width": 640
            },
            {
              "height": 300,
              "url": "https://i.scdn.co/image/b87f38a1e9e7f7a48576b6b5bf1bf19be268c5ca",
              "width": 300
            },
            {
              "height": 64,
              "url": "https://i.scdn.co/image/af72278dd79f2cc7c2588ef4a560b0c677800f9f",
              "width": 64
            }
          ],
          "name": "Crash 19",
          "release_date": "2019-01-13",
          "release_date_precision": "day",
          "total_tracks": 4,
          "type": "album",
          "uri": "spotify:album:3Fu24SV10reGItYkG92uNE"
        },
        "artists": [
          {
            "external_urls": {
              "spotify": "https://open.spotify.com/artist/5KKvcbrAgisuY3xDtioMbu"
            },
            "href": "https://api.spotify.com/v1/artists/5KKvcbrAgisuY3xDtioMbu",
            "id": "5KKvcbrAgisuY3xDtioMbu",
            "name": "MoonLander",
            "type": "artist",
            "uri": "spotify:artist:5KKvcbrAgisuY3xDtioMbu"
          },
          {
            "external_urls": {
              "spotify": "https://open.spotify.com/artist/1vZi26bY6TbnbfHd8ZKG1r"
            },
            "href": "https://api.spotify.com/v1/artists/1vZi26bY6TbnbfHd8ZKG1r",
            "id": "1vZi26bY6TbnbfHd8ZKG1r",
            "name": "Rob Flo",
            "type": "artist",
            "uri": "spotify:artist:1vZi26bY6TbnbfHd8ZKG1r"
          }
        ],
        "available_markets": [
          "AD",
          "AE",
          "AR",
          "AT",
          "AU",
          "BE",
          "BG",
          "BH",
          "BO",
          "BR",
          "CA",
          "CH",
          "CL",
          "CO",
          "CR",
          "CY",
          "CZ",
          "DE",
          "DK",
          "DO",
          "DZ",
          "EC",
          "EE",
          "EG",
          "ES",
          "FI",
          "FR",
          "GB",
          "GR",
          "GT",
          "HK",
          "HN",
          "HU",
          "ID",
          "IE",
          "IL",
          "IN",
          "IS",
          "IT",
          "JO",
          "JP",
          "KW",
          "LB",
          "LI",
          "LT",
          "LU",
          "LV",
          "MA",
          "MC",
          "MT",
          "MX",
          "MY",
          "NI",
          "NL",
          "NO",
          "NZ",
          "OM",
          "PA",
          "PE",
          "PH",
          "PL",
          "PS",
          "PT",
          "PY",
          "QA",
          "RO",
          "SA",
          "SE",
          "SG",
          "SK",
          "SV",
          "TH",
          "TN",
          "TR",
          "TW",
          "US",
          "UY",
          "VN",
          "ZA"
        ],
        "disc_number": 1,
        "duration_ms": 262034,
        "explicit": false,
        "external_ids": {
          "isrc": "QZ4JJ1996870"
        },
        "external_urls": {
          "spotify": "https://open.spotify.com/track/5zJPomIIxwqlrXLbdJmhiS"
        },
        "href": "https://api.spotify.com/v1/tracks/5zJPomIIxwqlrXLbdJmhiS",
        "id": "5zJPomIIxwqlrXLbdJmhiS",
        "is_local": false,
        "name": "Stay Around",
        "popularity": 4,
        "preview_url": "https://p.scdn.co/mp3-preview/a7df76180b47f7cf36cb5475f05959c5b98bfe3e?cid=87734dfae0b7432488270b2fc1ff2e30",
        "track_number": 1,
        "type": "track",
        "uri": "spotify:track:5zJPomIIxwqlrXLbdJmhiS"
      },
      {
        "album": {
          "album_type": "single",
          "artists": [
            {
              "external_urls": {
                "spotify": "https://open.spotify.com/artist/15TAsB8ZUELWey4YVb9XvH"
              },
              "href": "https://api.spotify.com/v1/artists/15TAsB8ZUELWey4YVb9XvH",
              "id": "15TAsB8ZUELWey4YVb9XvH",
              "name": "Malik West",
              "type": "artist",
              "uri": "spotify:artist:15TAsB8ZUELWey4YVb9XvH"
            }
          ],
          "available_markets": [
            "AD",
            "AE",
            "AR",
            "AT",
            "AU",
            "BE",
            "BG",
            "BH",
            "BO",
            "BR",
            "CA",
            "CH",
            "CL",
            "CO",
            "CR",
            "CY",
            "CZ",
            "DE",
            "DK",
            "DO",
            "DZ",
            "EC",
            "EE",
            "EG",
            "ES",
            "FI",
            "FR",
            "GB",
            "GR",
            "GT",
            "HK",
            "HN",
            "HU",
            "ID",
            "IE",
            "IL",
            "IS",
            "IT",
            "JO",
            "JP",
            "KW",
            "LB",
            "LI",
            "LT",
            "LU",
            "LV",
            "MA",
            "MC",
            "MT",
            "MX",
            "MY",
            "NI",
            "NL",
            "NO",
            "NZ",
            "OM",
            "PA",
            "PE",
            "PH",
            "PL",
            "PS",
            "PT",
            "PY",
            "QA",
            "RO",
            "SA",
            "SE",
            "SG",
            "SK",
            "SV",
            "TH",
            "TN",
            "TR",
            "TW",
            "US",
            "UY",
            "VN",
            "ZA"
          ],
          "external_urls": {
            "spotify": "https://open.spotify.com/album/4WFp9cnt8joMSNi4qnYxtw"
          },
          "href": "https://api.spotify.com/v1/albums/4WFp9cnt8joMSNi4qnYxtw",
          "id": "4WFp9cnt8joMSNi4qnYxtw",
          "images": [
            {
              "height": 600,
              "url": "https://i.scdn.co/image/ba262647004dcac56ab64d5e35f94f4ca062d57d",
              "width": 600
            },
            {
              "height": 300,
              "url": "https://i.scdn.co/image/0f12b37efe8ab3329450a5387b82885369e31aaa",
              "width": 300
            },
            {
              "height": 64,
              "url": "https://i.scdn.co/image/b56c7a48f76c5ab4aee56c484f95c7f68f5602a0",
              "width": 64
            }
          ],
          "name": "I Like Me Better with Clear Skin & Rose Water",
          "release_date": "2019-04-22",
          "release_date_precision": "day",
          "total_tracks": 6,
          "type": "album",
          "uri": "spotify:album:4WFp9cnt8joMSNi4qnYxtw"
        },
        "artists": [
          {
            "external_urls": {
              "spotify": "https://open.spotify.com/artist/15TAsB8ZUELWey4YVb9XvH"
            },
            "href": "https://api.spotify.com/v1/artists/15TAsB8ZUELWey4YVb9XvH",
            "id": "15TAsB8ZUELWey4YVb9XvH",
            "name": "Malik West",
            "type": "artist",
            "uri": "spotify:artist:15TAsB8ZUELWey4YVb9XvH"
          }
        ],
        "available_markets": [
          "AD",
          "AE",
          "AR",
          "AT",
          "AU",
          "BE",
          "BG",
          "BH",
          "BO",
          "BR",
          "CA",
          "CH",
          "CL",
          "CO",
          "CR",
          "CY",
          "CZ",
          "DE",
          "DK",
          "DO",
          "DZ",
          "EC",
          "EE",
          "EG",
          "ES",
          "FI",
          "FR",
          "GB",
          "GR",
          "GT",
          "HK",
          "HN",
          "HU",
          "ID",
          "IE",
          "IL",
          "IS",
          "IT",
          "JO",
          "JP",
          "KW",
          "LB",
          "LI",
          "LT",
          "LU",
          "LV",
          "MA",
          "MC",
          "MT",
          "MX",
          "MY",
          "NI",
          "NL",
          "NO",
          "NZ",
          "OM",
          "PA",
          "PE",
          "PH",
          "PL",
          "PS",
          "PT",
          "PY",
          "QA",
          "RO",
          "SA",
          "SE",
          "SG",
          "SK",
          "SV",
          "TH",
          "TN",
          "TR",
          "TW",
          "US",
          "UY",
          "VN",
          "ZA"
        ],
        "disc_number": 1,
        "duration_ms": 176518,
        "explicit": true,
        "external_ids": {
          "isrc": "QZ93L1931942"
        },
        "external_urls": {
          "spotify": "https://open.spotify.com/track/49d1VpxMfaL9W2CXFDnQg1"
        },
        "href": "https://api.spotify.com/v1/tracks/49d1VpxMfaL9W2CXFDnQg1",
        "id": "49d1VpxMfaL9W2CXFDnQg1",
        "is_local": false,
        "name": "Stay Flo",
        "popularity": 0,
        "preview_url": "https://p.scdn.co/mp3-preview/bf2e84817d7bc66ec8012ac69c8e6a5a0b10eac9?cid=87734dfae0b7432488270b2fc1ff2e30",
        "track_number": 6,
        "type": "track",
        "uri": "spotify:track:49d1VpxMfaL9W2CXFDnQg1"
      },
      {
        "album": {
          "album_type": "single",
          "artists": [
            {
              "external_urls": {
                "spotify": "https://open.spotify.com/artist/5Ol7umn34fqXApfugYcl9Q"
              },
              "href": "https://api.spotify.com/v1/artists/5Ol7umn34fqXApfugYcl9Q",
              "id": "5Ol7umn34fqXApfugYcl9Q",
              "name": "Flo",
              "type": "artist",
              "uri": "spotify:artist:5Ol7umn34fqXApfugYcl9Q"
            }
          ],
          "available_markets": [
            "AD",
            "AE",
            "AR",
            "AT",
            "AU",
            "BE",
            "BG",
            "BH",
            "BO",
            "BR",
            "CA",
            "CH",
            "CL",
            "CO",
            "CR",
            "CY",
            "CZ",
            "DE",
            "DK",
            "DO",
            "DZ",
            "EC",
            "EE",
            "EG",
            "ES",
            "FI",
            "FR",
            "GB",
            "GR",
            "GT",
            "HK",
            "HN",
            "HU",
            "ID",
            "IE",
            "IL",
            "IN",
            "IS",
            "IT",
            "JO",
            "JP",
            "KW",
            "LB",
            "LI",
            "LT",
            "LU",
            "LV",
            "MA",
            "MC",
            "MT",
            "MX",
            "MY",
            "NI",
            "NL",
            "NO",
            "NZ",
            "OM",
            "PA",
            "PE",
            "PH",
            "PL",
            "PS",
            "PT",
            "PY",
            "QA",
            "RO",
            "SA",
            "SE",
            "SG",
            "SK",
            "SV",
            "TH",
            "TN",
            "TR",
            "TW",
            "US",
            "UY",
            "VN",
            "ZA"
          ],
          "external_urls": {
            "spotify": "https://open.spotify.com/album/42efW2jXtHJbwMSIeJccW9"
          },
          "href": "https://api.spotify.com/v1/albums/42efW2jXtHJbwMSIeJccW9",
          "id": "42efW2jXtHJbwMSIeJccW9",
          "images": [
            {
              "height": 640,
              "url": "https://i.scdn.co/image/f8ff9aa0e327fbb23e2b84ca77fef8084f9f18fb",
              "width": 640
            },
            {
              "height": 300,
              "url": "https://i.scdn.co/image/670174905508934d50ac4541cc294614908d5d91",
              "width": 300
            },
            {
              "height": 64,
              "url": "https://i.scdn.co/image/be6409cca03e62a3f51ad079d06fcfd516c2f337",
              "width": 64
            }
          ],
          "name": "Daddy Can't You Stay (feat. Paul Richmond)",
          "release_date": "2014-09-30",
          "release_date_precision": "day",
          "total_tracks": 1,
          "type": "album",
          "uri": "spotify:album:42efW2jXtHJbwMSIeJccW9"
        },
        "artists": [
          {
            "external_urls": {
              "spotify": "https://open.spotify.com/artist/5Ol7umn34fqXApfugYcl9Q"
            },
            "href": "https://api.spotify.com/v1/artists/5Ol7umn34fqXApfugYcl9Q",
            "id": "5Ol7umn34fqXApfugYcl9Q",
            "name": "Flo",
            "type": "artist",
            "uri": "spotify:artist:5Ol7umn34fqXApfugYcl9Q"
          },
          {
            "external_urls": {
              "spotify": "https://open.spotify.com/artist/071AGzvFTYodI4R91ypmOG"
            },
            "href": "https://api.spotify.com/v1/artists/071AGzvFTYodI4R91ypmOG",
            "id": "071AGzvFTYodI4R91ypmOG",
            "name": "Paul Richmond",
            "type": "artist",
            "uri": "spotify:artist:071AGzvFTYodI4R91ypmOG"
          }
        ],
        "available_markets": [
          "AD",
          "AE",
          "AR",
          "AT",
          "AU",
          "BE",
          "BG",
          "BH",
          "BO",
          "BR",
          "CA",
          "CH",
          "CL",
          "CO",
          "CR",
          "CY",
          "CZ",
          "DE",
          "DK",
          "DO",
          "DZ",
          "EC",
          "EE",
          "EG",
          "ES",
          "FI",
          "FR",
          "GB",
          "GR",
          "GT",
          "HK",
          "HN",
          "HU",
          "ID",
          "IE",
          "IL",
          "IN",
          "IS",
          "IT",
          "JO",
          "JP",
          "KW",
          "LB",
          "LI",
          "LT",
          "LU",
          "LV",
          "MA",
          "MC",
          "MT",
          "MX",
          "MY",
          "NI",
          "NL",
          "NO",
          "NZ",
          "OM",
          "PA",
          "PE",
          "PH",
          "PL",
          "PS",
          "PT",
          "PY",
          "QA",
          "RO",
          "SA",
          "SE",
          "SG",
          "SK",
          "SV",
          "TH",
          "TN",
          "TR",
          "TW",
          "US",
          "UY",
          "VN",
          "ZA"
        ],
        "disc_number": 1,
        "duration_ms": 293565,
        "explicit": false,
        "external_ids": {
          "isrc": "ushm91428015"
        },
        "external_urls": {
          "spotify": "https://open.spotify.com/track/5s9zvBJGNfT3HUbdTGucnr"
        },
        "href": "https://api.spotify.com/v1/tracks/5s9zvBJGNfT3HUbdTGucnr",
        "id": "5s9zvBJGNfT3HUbdTGucnr",
        "is_local": false,
        "name": "Daddy Can't You Stay",
        "popularity": 0,
        "preview_url": "https://p.scdn.co/mp3-preview/174af736f921d1ebe1130b5693beef7c039d5ab7?cid=87734dfae0b7432488270b2fc1ff2e30",
        "track_number": 1,
        "type": "track",
        "uri": "spotify:track:5s9zvBJGNfT3HUbdTGucnr"
      }
    ],
    "limit": 5,
    "next": "https://api.spotify.com/v1/search?query=Stay+Flo&type=track&offset=5&limit=5",
    "offset": 0,
    "previous": null,
    "total": 13
  }
}
